Report Draft
…
Country

data |>
  distinct(Country)

# A tibble: 179 × 1
   Country           
   <chr>             
 1 Turkiye           
 2 Spain             
 3 India             
 4 Guyana            
 5 Israel            
 6 Costa Rica        
 7 Russian Federation
 8 Hungary           
 9 Jordan            
10 Moldova           
# ℹ 169 more rows
…
